…
# Format test data and predictions for yardstick metrics
est<- tibble(
  truth      = as.factor(y_test_vec) %>% fct_recode(yes = "1", no = "0"),
  estimate   = as.factor(pred) %>% fct_recode(yes = "1", no = "0"),
  class_prob = prob
)

est
```

    ## # A tibble: 7,590 x 3
    ##    truth estimate class_prob
    ##    <fct> <fct>         <dbl>
    ##  1 no    no          0.00242
    ##  2 no    no          0.00242
    ##  3 no    no          0.00242
    ##  4 no    no          0.137  
    ##  5 no    no          0.00242
    ##  6 no    no          0.469  
    ##  7 yes   no          0.488  
    ##  8 no    no          0.468  
    ##  9 no    no          0.00242
    ## 10 no    no          0.238  
    ## # ... with 7,580 more rows
…
